feature;mapped_index
sample;0
register;1
benchmark_label;2
S0 C2 READ BW (MIB);3
S0 C3 READ BW (MIB);4
S0 C0 WRITE BW (MIB);5
S0 C1 WRITE BW (MIB);6
S0 C2 WRITE BW (MIB);7
S0 C3 WRITE BW (MIB);8
S0 C0 PAGE ACT COUNT;9
S0 C1 PAGE ACT COUNT;10
S0 C2 ACT COUNT;11
S0 C3 ACT COUNT;12
S0 C0 PRE_COUNT.PAGE_MISS;13
S0 C1 PRE_COUNT.PAGE_MISS;14
S0 C2 PRE_COUNT.PAGE_MISS;15
S0 C3 PRE_COUNT.PAGE_MISS;16
S0 INST;17
S0 CYC;18
S0 IDQ UOPS NOT DELV CORE;19
S0 UOPS ISSUED;20
S0 UOPS RETIRED;21
S0 INT MISC RECOVERY CYCLES;22
S0 UOPS EXEC P0;23
S0 UOPS EXEC P1;24
S0 UOPS EXEC P2;25
S0 UOPS EXEC P3;26
S0 UOPS EXEC P4;27
S0 UOPS EXEC P5;28
S0 UOPS EXEC P6;29
S0 UOPS EXEC P7;30
S1 C0 READ BW (MIB);31
S1 C1 READ BW (MIB);32
S1 C2 READ BW (MIB);33
S1 C3 READ BW (MIB);34
S1 C0 WRITE BW (MIB);35
S1 C1 WRITE BW (MIB);36
S1 C2 WRITE BW (MIB);37
S1 C3 WRITE BW (MIB);38
S1 C0 PAGE ACT COUNT;39
S1 C1 PAGE ACT COUNT;40
S1 C2 ACT COUNT;41
S1 C3 ACT COUNT;42
S1 C0 PRE_COUNT.PAGE_MISS;43
S1 C1 PRE_COUNT.PAGE_MISS;44
S1 C2 PRE_COUNT.PAGE_MISS;45
S1 C3 PRE_COUNT.PAGE_MISS;46
S1 INST;47
S1 CYC;48
S1 IDQ UOPS NOT DELV CORE;49
S1 UOPS ISSUED;50
S1 UOPS RETIRED;51
S1 INT MISC RECOVERY CYCLES;52
S1 UOPS EXEC P0;53
S1 UOPS EXEC P1;54
S1 UOPS EXEC P2;55
S1 UOPS EXEC P3;56
S1 UOPS EXEC P4;57
S1 UOPS EXEC P5;58
S1 UOPS EXEC P6;59
S1 UOPS EXEC P7;60
slots s0;61
fe bound s0;62
bad spec s0;63
retiring s0;64
be bound s0;65
slots s1;66
fe bound s1;67
bad spec s1;68
retiring s1;69
be bound s1;70
S0 RBW;71
S0 WBW;72
S1 RBW;73
S1 WBW;74
S0 CY;75
S0 IN;76
S1 CY;77
S1 IN;78
S0 IPC;79
S1 IPC;80
RM IPC;81
RATIO P0;82
RATIO P1;83
RATIO P2;84
RATIO P3;85
RATIO P4;86
RATIO P5;87
RATIO P6;88
RATIO P7;89
S0 PO;90
S0 PM;91
S1 PO;92
