application_sample;prediction;probability
1;8.0;0.6482801322698826
2;8.0;0.3863287044992794
3;5.0;0.14291827340040478
4;1.0;0.23278186844396942
5;1.0;0.23751439520365683
6;15.0;0.9999999772846937
7;8.0;0.15987758516947903
8;5.0;0.11244390286581282
9;8.0;0.2160295764838172
10;5.0;0.12928815090936022
11;8.0;0.34299670023495715
12;5.0;0.3353849314534954
13;9.0;0.11788174716800891
14;8.0;0.6646735310014007
15;8.0;0.1316572363859523
16;3.0;0.0939348231991001
17;10.0;0.16691753764579337
18;16.0;0.08852562831129333
19;5.0;0.09466000754930928
20;8.0;0.6322825482112956
21;4.0;0.10596221516520728
22;7.0;0.10797591073447865
23;8.0;0.326569311049708
24;16.0;0.49084118994523035
25;5.0;0.10539483815671583
26;8.0;0.7067019901821361
27;8.0;0.6901345040721072
28;14.0;0.1003396142845882
29;10.0;0.08630334968373256
30;5.0;0.3333655111365025
31;9.0;0.1221836897109448
32;9.0;0.19413176121796377
